<resources>
    <string name="app_name">Popular Movies</string>
    <string name="action_order_most_popular">Most Popular</string>
    <string name="action_order_top_rated">Top Rated</string>
    <string name="error_message">
        An error has occurred. Please try again by clicking REFRESH
    </string>
    <string name="most_popular_movies_json">
        "{\"page\":1,\"results\":[{\"adult\":false,\"backdrop_path\":\"/jeAQdDX9nguP6YOX6QSWKDPkbBo.jpg\",\"genre_ids\":[28,14,878],\"id\":590706,\"original_language\":\"en\",\"original_title\":\"Jiu Jitsu\",\"overview\":\"Every six years, an ancient order of jiu-jitsu fighters joins forces to battle a vicious race of alien invaders. But when a celebrated war hero goes down in defeat, the fate of the planet and mankind hangs in the balance.\",\"popularity\":2379.091,\"poster_path\":\"/eLT8Cu357VOwBVTitkmlDEg32Fs.jpg\",\"release_date\":\"2020-11-20\",\"title\":\"Jiu Jitsu\",\"video\":false,\"vote_average\":5.7,\"vote_count\":123},{\"adult\":false,\"backdrop_path\":\"/vam9VHLZl8tqNwkp1zjEAxIOrkk.jpg\",\"genre_ids\":[10751,14,10770],\"id\":671583,\"original_language\":\"en\",\"original_title\":\"Upside-Down Magic\",\"overview\":\"Nory and her best friend Reina enter the Sage Academy for Magical Studies, where Nory’s unconventional powers land her in a class for those with wonky, or “upside-down,” magic. Undaunted, Nory sets out to prove that that upside-down magic can be just as powerful as right-side-up.\",\"popularity\":2323.196,\"poster_path\":\"/xfYMQNApIIh8KhpNVtG1XRz0ZAp.jpg\",\"release_date\":\"2020-07-31\",\"title\":\"Upside-Down Magic\",\"video\":false,\"vote_average\":7.7,\"vote_count\":68},{\"adult\":false,\"backdrop_path\":\"/ckfwfLkl0CkafTasoRw5FILhZAS.jpg\",\"genre_ids\":[28,35,14],\"id\":602211,\"original_language\":\"en\",\"original_title\":\"Fatman\",\"overview\":\"A rowdy, unorthodox Santa Claus is fighting to save his declining business. Meanwhile, Billy, a neglected and precocious 12 year old, hires a hit man to kill Santa after receiving a lump of coal in his stocking.\",\"popularity\":1819.915,\"poster_path\":\"/4n8QNNdk4BOX9Dslfbz5Dy6j1HK.jpg\",\"release_date\":\"2020-11-13\",\"title\":\"Fatman\",\"video\":false,\"vote_average\":6.1,\"vote_count\":123},{\"adult\":false,\"backdrop_path\":\"/mZgbq4Zpxz7ozWXl4asj6vNdlIi.jpg\",\"genre_ids\":[35,10751,14],\"id\":454433,\"original_language\":\"en\",\"original_title\":\"Magic Camp\",\"overview\":\"Andy, at the urging of his former mentor and Magic Camp owner Roy Preston, returns to the camp of his youth hoping to reignite his career. Instead, he finds inspiration in his ragtag bunch of rookie magicians.\",\"popularity\":1601.987,\"poster_path\":\"/awcPLFFYjufRXd2oAAP6ZIXF9vM.jpg\",\"release_date\":\"2020-08-14\",\"title\":\"Magic Camp\",\"video\":false,\"vote_average\":7,\"vote_count\":104},{\"adult\":false,\"backdrop_path\":\"/wzJRB4MKi3yK138bJyuL9nx47y6.jpg\",\"genre_ids\":[28,53,878],\"id\":577922,\"original_language\":\"en\",\"original_title\":\"Tenet\",\"overview\":\"Armed with only one word - Tenet - and fighting for the survival of the entire world, the Protagonist journeys through a twilight world of international espionage on a mission that will unfold in something beyond real time.\",\"popularity\":1387.921,\"poster_path\":\"/k68nPLbIST6NP96JmTxmZijEvCA.jpg\",\"release_date\":\"2020-08-22\",\"title\":\"Tenet\",\"video\":false,\"vote_average\":7.4,\"vote_count\":2729},{\"adult\":false,\"backdrop_path\":\"/zKv7KF0pH9ASv2uGgTvTylMlxQn.jpg\",\"genre_ids\":[37],\"id\":729648,\"original_language\":\"en\",\"original_title\":\"The Dalton Gang\",\"overview\":\"When their brother Frank is killed by an outlaw, brothers Bob Dalton, Emmett Dalton and Gray Dalton join their local sheriff's department. When they are cheated by the law, they turn to crime, robbing trains and anything else they can steal from over the course of two years in the early 1890's. Trying to out do Jesse James, they attempt to rob two banks at once in October of 1892, and things get ugly\",\"popularity\":1331.881,\"poster_path\":\"/6OeGqp18oZucUGziMIRNhLouZ75.jpg\",\"release_date\":\"2020-11-02\",\"title\":\"The Dalton Gang\",\"video\":false,\"vote_average\":4.8,\"vote_count\":19},{\"adult\":false,\"backdrop_path\":\"/86L8wqGMDbwURPni2t7FQ0nDjsH.jpg\",\"genre_ids\":[28,53],\"id\":724989,\"original_language\":\"en\",\"original_title\":\"Hard Kill\",\"overview\":\"The work of billionaire tech CEO Donovan Chalmers is so valuable that he hires mercenaries to protect it, and a terrorist group kidnaps his daughter just to get it.\",\"popularity\":1187.071,\"poster_path\":\"/ugZW8ocsrfgI95pnQ7wrmKDxIe.jpg\",\"release_date\":\"2020-10-23\",\"title\":\"Hard Kill\",\"video\":false,\"vote_average\":5,\"vote_count\":228},{\"adult\":false,\"backdrop_path\":\"/fTDzKoQIh1HeyjfpG5AHMi2jxAJ.jpg\",\"genre_ids\":[28,35],\"id\":682377,\"original_language\":\"en\",\"original_title\":\"Chick Fight\",\"overview\":\"When Anna Wyncomb is introduced to an an underground, all-female fight club in order to turn the mess of her life around, she discovers she is much more personally connected to the history of the club than she could ever imagine.\",\"popularity\":1112.619,\"poster_path\":\"/4ZocdxnOO6q2UbdKye2wgofLFhB.jpg\",\"release_date\":\"2020-11-13\",\"title\":\"Chick Fight\",\"video\":false,\"vote_average\":5.9,\"vote_count\":50},{\"adult\":false,\"backdrop_path\":\"/5846jHODKbja38USbFcXgOnsfqb.jpg\",\"genre_ids\":[10751,14,12],\"id\":654028,\"original_language\":\"en\",\"original_title\":\"The Christmas Chronicles: Part Two\",\"overview\":\"Kate Pierce is reluctantly spending Christmas with her mom’s new boyfriend and his son Jack. But when the North Pole and Christmas are threatened to be destroyed, Kate and Jack are unexpectedly pulled into a new adventure with Santa Claus.\",\"popularity\":874.191,\"poster_path\":\"/6sG0kbEvAi3RRLcGGU5h8l3qAPa.jpg\",\"release_date\":\"2020-11-18\",\"title\":\"The Christmas Chronicles: Part Two\",\"video\":false,\"vote_average\":7.1,\"vote_count\":219},{\"adult\":false,\"backdrop_path\":\"/qAKvUu2FSaDlnqznY4VOp5PmjIF.jpg\",\"genre_ids\":[28,12,18,14],\"id\":337401,\"original_language\":\"en\",\"original_title\":\"Mulan\",\"overview\":\"When the Emperor of China issues a decree that one man per family must serve in the Imperial Chinese Army to defend the country from Huns, Hua Mulan, the eldest daughter of an honored warrior, steps in to take the place of her ailing father. She is spirited, determined and quick on her feet. Disguised as a man by the name of Hua Jun, she is tested every step of the way and must harness her innermost strength and embrace her true potential.\",\"popularity\":851.439,\"poster_path\":\"/aKx1ARwG55zZ0GpRvU2WrGrCG9o.jpg\",\"release_date\":\"2020-09-04\",\"title\":\"Mulan\",\"video\":false,\"vote_average\":7.2,\"vote_count\":3305},{\"adult\":false,\"backdrop_path\":\"/gnf4Cb2rms69QbCnGFJyqwBWsxv.jpg\",\"genre_ids\":[53,28,18,80],\"id\":671039,\"original_language\":\"fr\",\"original_title\":\"Bronx\",\"overview\":\"Caught in the crosshairs of police corruption and Marseille’s warring gangs, a loyal cop must protect his squad by taking matters into his own hands.\",\"popularity\":831.787,\"poster_path\":\"/9HT9982bzgN5on1sLRmc1GMn6ZC.jpg\",\"release_date\":\"2020-10-30\",\"title\":\"Rogue City\",\"video\":false,\"vote_average\":5.8,\"vote_count\":277},{\"adult\":false,\"backdrop_path\":\"/2Fk3AB8E9dYIBc2ywJkxk8BTyhc.jpg\",\"genre_ids\":[28,53],\"id\":524047,\"original_language\":\"en\",\"original_title\":\"Greenland\",\"overview\":\"John Garrity, his estranged wife and their young son embark on a perilous journey to find sanctuary as a planet-killing comet hurtles toward Earth. Amid terrifying accounts of cities getting levelled, the Garrity's experience the best and worst in humanity. As the countdown to the global apocalypse approaches zero, their incredible trek culminates in a desperate and last-minute flight to a possible safe haven.\",\"popularity\":816.373,\"poster_path\":\"/bNo2mcvSwIvnx8K6y1euAc1TLVq.jpg\",\"release_date\":\"2020-07-29\",\"title\":\"Greenland\",\"video\":false,\"vote_average\":7.2,\"vote_count\":884},{\"adult\":false,\"backdrop_path\":\"/gEjNlhZhyHeto6Fy5wWy5Uk3A9D.jpg\",\"genre_ids\":[28,27,53],\"id\":581392,\"original_language\":\"ko\",\"original_title\":\"반도\",\"overview\":\"A soldier and his team battle hordes of post-apocalyptic zombies in the wastelands of the Korean Peninsula.\",\"popularity\":742.786,\"poster_path\":\"/sy6DvAu72kjoseZEjocnm2ZZ09i.jpg\",\"release_date\":\"2020-07-15\",\"title\":\"Peninsula\",\"video\":false,\"vote_average\":6.9,\"vote_count\":875},{\"adult\":false,\"backdrop_path\":\"/aO5ILS7qnqtFIprbJ40zla0jhpu.jpg\",\"genre_ids\":[28,53,12,18],\"id\":741067,\"original_language\":\"en\",\"original_title\":\"Welcome to Sudden Death\",\"overview\":\"Jesse Freeman is a former special forces officer and explosives expert now working a regular job as a security guard in a state-of-the-art basketball arena. Trouble erupts when a tech-savvy cadre of terrorists kidnap the team's owner and Jesse's daughter during opening night. Facing a ticking clock and impossible odds, it's up to Jesse to not only save them but also a full house of fans in this highly charged action thriller.\",\"popularity\":708.941,\"poster_path\":\"/elZ6JCzSEvFOq4gNjNeZsnRFsvj.jpg\",\"release_date\":\"2020-09-29\",\"title\":\"Welcome to Sudden Death\",\"video\":false,\"vote_average\":6.3,\"vote_count\":184},{\"adult\":false,\"backdrop_path\":\"/8rIoyM6zYXJNjzGseT3MRusMPWl.jpg\",\"genre_ids\":[14,10751,12,35,27],\"id\":531219,\"original_language\":\"en\",\"original_title\":\"Roald Dahl's The Witches\",\"overview\":\"In late 1967, a young orphaned boy goes to live with his loving grandma in the rural Alabama town of Demopolis. As the boy and his grandmother encounter some deceptively glamorous but thoroughly diabolical witches, she wisely whisks him away to a seaside resort. Regrettably, they arrive at precisely the same time that the world's Grand High Witch has gathered.\",\"popularity\":707.536,\"poster_path\":\"/betExZlgK0l7CZ9CsCBVcwO1OjL.jpg\",\"release_date\":\"2020-10-26\",\"title\":\"Roald Dahl's The Witches\",\"video\":false,\"vote_average\":6.9,\"vote_count\":877},{\"adult\":false,\"backdrop_path\":\"/d1sVANghKKMZNvqjW0V6y1ejvV9.jpg\",\"genre_ids\":[16,28,12,14,18],\"id\":635302,\"original_language\":\"ja\",\"original_title\":\"劇場版「鬼滅の刃」無限列車編\",\"overview\":\"Tanjirō Kamado, joined with Inosuke Hashibira, a boy raised by boars who wears a boar's head, and Zenitsu Agatsuma, a scared boy who reveals his true power when he sleeps, boards the Infinity Train on a new mission with the Fire Hashira, Kyōjurō Rengoku, to defeat a demon who has been tormenting the people and killing the demon slayers who oppose it!\",\"popularity\":575.16,\"poster_path\":\"/h8Rb9gBr48ODIwYUttZNYeMWeUU.jpg\",\"release_date\":\"2020-10-16\",\"title\":\"Demon Slayer the Movie: Mugen Train\",\"video\":false,\"vote_average\":6.1,\"vote_count\":94},{\"adult\":false,\"backdrop_path\":\"/pq0JSpwyT2URytdFG0euztQPAyR.jpg\",\"genre_ids\":[28],\"id\":694919,\"original_language\":\"en\",\"original_title\":\"Money Plane\",\"overview\":\"A professional thief with $40 million in debt and his family's life on the line must commit one final heist - rob a futuristic airborne casino filled with the world's most dangerous criminals.\",\"popularity\":569.117,\"poster_path\":\"/6CoRTJTmijhBLJTUNoVSUNxZMEI.jpg\",\"release_date\":\"2020-09-29\",\"title\":\"Money Plane\",\"video\":false,\"vote_average\":5.9,\"vote_count\":200},{\"adult\":false,\"backdrop_path\":\"/kMe4TKMDNXTKptQPAdOF0oZHq3V.jpg\",\"genre_ids\":[80,18,9648],\"id\":497582,\"original_language\":\"en\",\"original_title\":\"Enola Holmes\",\"overview\":\"While searching for her missing mother, intrepid teen Enola Holmes uses her sleuthing skills to outsmart big brother Sherlock and help a runaway lord.\",\"popularity\":561.868,\"poster_path\":\"/riYInlsq2kf1AWoGm80JQW5dLKp.jpg\",\"release_date\":\"2020-09-23\",\"title\":\"Enola Holmes\",\"video\":false,\"vote_average\":7.5,\"vote_count\":2839},{\"adult\":false,\"backdrop_path\":\"/wu1uilmhM4TdluKi2ytfz8gidHf.jpg\",\"genre_ids\":[16,14,12,35,10751],\"id\":400160,\"original_language\":\"en\",\"original_title\":\"The SpongeBob Movie: Sponge on the Run\",\"overview\":\"When his best friend Gary is suddenly snatched away, SpongeBob takes Patrick on a madcap mission far beyond Bikini Bottom to save their pink-shelled pal.\",\"popularity\":561.452,\"poster_path\":\"/jlJ8nDhMhCYJuzOw3f52CP1W8MW.jpg\",\"release_date\":\"2020-08-14\",\"title\":\"The SpongeBob Movie: Sponge on the Run\",\"video\":false,\"vote_average\":8,\"vote_count\":1681},{\"adult\":false,\"backdrop_path\":\"/eCIvqa3QVCx6H09bdeOS8Al2Sqy.jpg\",\"genre_ids\":[28,27,878],\"id\":340102,\"original_language\":\"en\",\"original_title\":\"The New Mutants\",\"overview\":\"Five young mutants, just discovering their abilities while held in a secret facility against their will, fight to escape their past sins and save themselves.\",\"popularity\":517.447,\"poster_path\":\"/xrI4EnZWftpo1B7tTvlMUXVOikd.jpg\",\"release_date\":\"2020-08-26\",\"title\":\"The New Mutants\",\"video\":false,\"vote_average\":6.4,\"vote_count\":1009}],\"total_pages\":500,\"total_results\":10000}"
    </string>
    <string name="tor_rated_movies_json">
        "{\"page\":1,\"results\":[{\"adult\":false,\"backdrop_path\":\"/fQq1FWp1rC89xDrRMuyFJdFUdMd.jpg\",\"genre_ids\":[],\"id\":761053,\"original_language\":\"en\",\"original_title\":\"Gabriel's Inferno Part III\",\"overview\":\"The final part of the film adaption of the erotic romance novel Gabriel's Inferno written by an anonymous Canadian author under the pen name Sylvain Reynard.\",\"popularity\":50.753,\"poster_path\":\"/fYtHxTxlhzD4QWfEbrC1rypysSD.jpg\",\"release_date\":\"2020-11-19\",\"title\":\"Gabriel's Inferno Part III\",\"video\":false,\"vote_average\":9.2,\"vote_count\":476},{\"adult\":false,\"backdrop_path\":\"/jtAI6OJIWLWiRItNSZoWjrsUtmi.jpg\",\"genre_ids\":[10749],\"id\":724089,\"original_language\":\"en\",\"original_title\":\"Gabriel's Inferno Part II\",\"overview\":\"Professor Gabriel Emerson finally learns the truth about Julia Mitchell's identity, but his realization comes a moment too late. Julia is done waiting for the well-respected Dante specialist to remember her and wants nothing more to do with him. Can Gabriel win back her heart before she finds love in another's arms?\",\"popularity\":12.916,\"poster_path\":\"/pci1ArYW7oJ2eyTo2NMYEKHHiCP.jpg\",\"release_date\":\"2020-07-31\",\"title\":\"Gabriel's Inferno Part II\",\"video\":false,\"vote_average\":8.9,\"vote_count\":1031},{\"adult\":false,\"backdrop_path\":\"/w2uGvCpMtvRqZg6waC1hvLyZoJa.jpg\",\"genre_ids\":[10749],\"id\":696374,\"original_language\":\"en\",\"original_title\":\"Gabriel's Inferno\",\"overview\":\"An intriguing and sinful exploration of seduction, forbidden love, and redemption, Gabriel's Inferno is a captivating and wildly passionate tale of one man's escape from his own personal hell as he tries to earn the impossible--forgiveness and love.\",\"popularity\":16.159,\"poster_path\":\"/oyG9TL7FcRP4EZ9Vid6uKzwdndz.jpg\",\"release_date\":\"2020-05-29\",\"title\":\"Gabriel's Inferno\",\"video\":false,\"vote_average\":8.8,\"vote_count\":1693},{\"adult\":false,\"backdrop_path\":\"/iNh3BivHyg5sQRPP1KOkzguEX0H.jpg\",\"genre_ids\":[18,80],\"id\":278,\"original_language\":\"en\",\"original_title\":\"The Shawshank Redemption\",\"overview\":\"Framed in the 1940s for the double murder of his wife and her lover, upstanding banker Andy Dufresne begins a new life at the Shawshank prison, where he puts his accounting skills to work for an amoral warden. During his long stretch in prison, Dufresne comes to be admired by the other inmates -- including an older prisoner named Red -- for his integrity and unquenchable sense of hope.\",\"popularity\":45.305,\"poster_path\":\"/q6y0Go1tsGEsmtFryDOJo3dEmqu.jpg\",\"release_date\":\"1994-09-23\",\"title\":\"The Shawshank Redemption\",\"video\":false,\"vote_average\":8.7,\"vote_count\":17698},{\"adult\":false,\"backdrop_path\":\"/rSPw7tgCH9c6NqICZef4kZjFOQ5.jpg\",\"genre_ids\":[18,80],\"id\":238,\"original_language\":\"en\",\"original_title\":\"The Godfather\",\"overview\":\"Spanning the years 1945 to 1955, a chronicle of the fictional Italian-American Corleone crime family. When organized crime family patriarch, Vito Corleone barely survives an attempt on his life, his youngest son, Michael steps in to take care of the would-be killers, launching a campaign of bloody revenge.\",\"popularity\":59.487,\"poster_path\":\"/3bhkrj58Vtu7enYsRolD1fZdja1.jpg\",\"release_date\":\"1972-03-14\",\"title\":\"The Godfather\",\"video\":false,\"vote_average\":8.7,\"vote_count\":13373},{\"adult\":false,\"backdrop_path\":\"/svYzz6A6xleZv5toTLAhigXd1DX.jpg\",\"genre_ids\":[35,18,10749],\"id\":19404,\"original_language\":\"hi\",\"original_title\":\"दिलवाले दुल्हनिया ले जायेंगे\",\"overview\":\"Raj is a rich, carefree, happy-go-lucky second generation NRI. Simran is the daughter of Chaudhary Baldev Singh, who in spite of being an NRI is very strict about adherence to Indian values. Simran has left for India to be married to her childhood fiancé. Raj leaves for India with a mission at his hands, to claim his lady love under the noses of her whole family. Thus begins a saga.\",\"popularity\":17.818,\"poster_path\":\"/2CAL2433ZeIihfX1Hb2139CX0pW.jpg\",\"release_date\":\"1995-10-20\",\"title\":\"Dilwale Dulhania Le Jayenge\",\"video\":false,\"vote_average\":8.7,\"vote_count\":2448},{\"adult\":false,\"backdrop_path\":\"/8g1rUabKleLvovt0Sx6bXgWfC42.jpg\",\"genre_ids\":[35,18],\"id\":644479,\"original_language\":\"es\",\"original_title\":\"Dedicada a mi ex\",\"overview\":\"The film tells the story of Ariel, a 21-year-old who decides to form a rock band to compete for a prize of ten thousand dollars in a musical band contest, this as a last option when trying to get money to save their relationship and reunite with his ex-girlfriend, which breaks due to the trip she must make to Finland for an internship. Ariel with her friend Ortega, decides to make a casting to find the other members of the band, although they do not know nothing about music, thus forming a band with members that have diverse and opposite personalities.\",\"popularity\":16.301,\"poster_path\":\"/riAooJrFvVhotyaOgoI0WR7okSe.jpg\",\"release_date\":\"2019-11-01\",\"title\":\"Dedicated to my ex\",\"video\":false,\"vote_average\":8.6,\"vote_count\":269},{\"adult\":false,\"backdrop_path\":\"/loRmRzQXZeqG78TqZuyvSlEQfZb.jpg\",\"genre_ids\":[18,36,10752],\"id\":424,\"original_language\":\"en\",\"original_title\":\"Schindler's List\",\"overview\":\"The true story of how businessman Oskar Schindler saved over a thousand Jewish lives from the Nazis while they worked as slaves in his factory during World War II.\",\"popularity\":31.051,\"poster_path\":\"/c8Ass7acuOe4za6DhSattE359gr.jpg\",\"release_date\":\"1993-11-30\",\"title\":\"Schindler's List\",\"video\":false,\"vote_average\":8.6,\"vote_count\":10670},{\"adult\":false,\"backdrop_path\":\"/mMtUybQ6hL24FXo0F3Z4j2KG7kZ.jpg\",\"genre_ids\":[10749,16,18],\"id\":372058,\"original_language\":\"ja\",\"original_title\":\"君の名は。\",\"overview\":\"High schoolers Mitsuha and Taki are complete strangers living separate lives. But one night, they suddenly switch places. Mitsuha wakes up in Taki’s body, and he in hers. This bizarre occurrence continues to happen randomly, and the two must adjust their lives around each other.\",\"popularity\":107.297,\"poster_path\":\"/q719jXXEzOoYaps6babgKnONONX.jpg\",\"release_date\":\"2016-08-26\",\"title\":\"Your Name.\",\"video\":false,\"vote_average\":8.6,\"vote_count\":6761},{\"adult\":false,\"backdrop_path\":\"/poec6RqOKY9iSiIUmfyfPfiLtvB.jpg\",\"genre_ids\":[18,80],\"id\":240,\"original_language\":\"en\",\"original_title\":\"The Godfather: Part II\",\"overview\":\"In the continuing saga of the Corleone crime family, a young Vito Corleone grows up in Sicily and in 1910s New York. In the 1950s, Michael Corleone attempts to expand the family business into Las Vegas, Hollywood and Cuba.\",\"popularity\":53.577,\"poster_path\":\"/hek3koDUyRQk7FIhPXsa6mT2Zc3.jpg\",\"release_date\":\"1974-12-20\",\"title\":\"The Godfather: Part II\",\"video\":false,\"vote_average\":8.6,\"vote_count\":7958},{\"adult\":false,\"backdrop_path\":\"/mSDsSDwaP3E7dEfUPWy4J0djt4O.jpg\",\"genre_ids\":[16,10751,14],\"id\":129,\"original_language\":\"ja\",\"original_title\":\"千と千尋の神隠し\",\"overview\":\"A young girl, Chihiro, becomes trapped in a strange new world of spirits. When her parents undergo a mysterious transformation, she must call upon the courage she never knew she had to free her family.\",\"popularity\":61.635,\"poster_path\":\"/2TeJfUZMGolfDdW6DKhfIWqvq8y.jpg\",\"release_date\":\"2001-07-20\",\"title\":\"Spirited Away\",\"video\":false,\"vote_average\":8.5,\"vote_count\":10533},{\"adult\":false,\"backdrop_path\":\"/ApiBzeaa95TNYliSbQ8pJv4Fje7.jpg\",\"genre_ids\":[35,53,18],\"id\":496243,\"original_language\":\"ko\",\"original_title\":\"기생충\",\"overview\":\"All unemployed, Ki-taek's family takes peculiar interest in the wealthy and glamorous Parks for their livelihood until they get entangled in an unexpected incident.\",\"popularity\":99.294,\"poster_path\":\"/7IiTTgloJzvGI1TAYymCfbfl3vT.jpg\",\"release_date\":\"2019-05-30\",\"title\":\"Parasite\",\"video\":false,\"vote_average\":8.5,\"vote_count\":9955},{\"adult\":false,\"backdrop_path\":\"/xMIyotorUv2Yz7zpQz2QYc8wkWB.jpg\",\"genre_ids\":[14,18,80],\"id\":497,\"original_language\":\"en\",\"original_title\":\"The Green Mile\",\"overview\":\"A supernatural tale set on death row in a Southern prison, where gentle giant John Coffey possesses the mysterious power to heal people's ailments. When the cell block's head guard, Paul Edgecomb, recognizes Coffey's miraculous gift, he tries desperately to help stave off the condemned man's execution.\",\"popularity\":33.414,\"poster_path\":\"/velWPhVMQeQKcxggNEU8YmIo52R.jpg\",\"release_date\":\"1999-12-10\",\"title\":\"The Green Mile\",\"video\":false,\"vote_average\":8.5,\"vote_count\":11352},{\"adult\":false,\"backdrop_path\":\"/bx326cwBtDsfDcnTgFlK5dXkyaC.jpg\",\"genre_ids\":[10402,18,10749],\"id\":630566,\"original_language\":\"en\",\"original_title\":\"Clouds\",\"overview\":\"Young musician Zach Sobiech discovers his cancer has spread, leaving him just a few months to live. With limited time, he follows his dream and makes an album, unaware that it will soon be a viral music phenomenon.\",\"popularity\":110.346,\"poster_path\":\"/2YvT3pdGngzpbAuxamTz4ZlabnT.jpg\",\"release_date\":\"2020-10-09\",\"title\":\"Clouds\",\"video\":false,\"vote_average\":8.5,\"vote_count\":456},{\"adult\":false,\"backdrop_path\":\"/w7RDIgQM6bLT7JXtH4iUQd3Iwxm.jpg\",\"genre_ids\":[53,80],\"id\":680,\"original_language\":\"en\",\"original_title\":\"Pulp Fiction\",\"overview\":\"A burger-loving hit man, his philosophical partner, a drug-addled gangster's moll and a washed-up boxer converge in this sprawling, comedic crime caper. Their adventures unfurl in three stories that ingeniously trip back and forth in time.\",\"popularity\":53.79,\"poster_path\":\"/dRZpdpKLgN9nk57zggJCs1TjJb4.jpg\",\"release_date\":\"1994-09-10\",\"title\":\"Pulp Fiction\",\"video\":false,\"vote_average\":8.5,\"vote_count\":20047},{\"adult\":false,\"backdrop_path\":\"/9guoVF7zayiiUq5ulKQpt375VIy.jpg\",\"genre_ids\":[16,28,35,14,12],\"id\":592350,\"original_language\":\"ja\",\"original_title\":\"僕のヒーローアカデミア THE MOVIE ヒーローズ：ライジング\",\"overview\":\"Class 1-A visits Nabu Island where they finally get to do some real hero work. The place is so peaceful that it's more like a vacation … until they're attacked by a villain with an unfathomable Quirk! His power is eerily familiar, and it looks like Shigaraki had a hand in the plan. But with All Might retired and citizens' lives on the line, there's no time for questions. Deku and his friends are the next generation of heroes, and they're the island's only hope.\",\"popularity\":324.262,\"poster_path\":\"/zGVbrulkupqpbwgiNedkJPyQum4.jpg\",\"release_date\":\"2019-12-20\",\"title\":\"My Hero Academia: Heroes Rising\",\"video\":false,\"vote_average\":8.5,\"vote_count\":506},{\"adult\":false,\"backdrop_path\":\"/9DeGfFIqjph5CBFVQrD6wv9S7rR.jpg\",\"genre_ids\":[12,14,28],\"id\":122,\"original_language\":\"en\",\"original_title\":\"The Lord of the Rings: The Return of the King\",\"overview\":\"Aragorn is revealed as the heir to the ancient kings as he, Gandalf and the other members of the broken fellowship struggle to save Gondor from Sauron's forces. Meanwhile, Frodo and Sam take the ring closer to the heart of Mordor, the dark lord's realm.\",\"popularity\":85.219,\"poster_path\":\"/rCzpDGLbOoPwLjy3OAm5NUPOTrC.jpg\",\"release_date\":\"2003-12-01\",\"title\":\"The Lord of the Rings: The Return of the King\",\"video\":false,\"vote_average\":8.5,\"vote_count\":16693},{\"adult\":false,\"backdrop_path\":\"/6aNKD81RHR1DqUUa8kOZ1TBY1Lp.jpg\",\"genre_ids\":[35,18],\"id\":637,\"original_language\":\"it\",\"original_title\":\"La vita è bella\",\"overview\":\"A touching story of an Italian book seller of Jewish ancestry who lives in his own little fairy tale. His creative and happy life would come to an abrupt halt when his entire family is deported to a concentration camp during World War II. While locked up he tries to convince his son that the whole thing is just a game.\",\"popularity\":38.109,\"poster_path\":\"/74hLDKjD5aGYOotO6esUVaeISa2.jpg\",\"release_date\":\"1997-12-20\",\"title\":\"Life Is Beautiful\",\"video\":false,\"vote_average\":8.5,\"vote_count\":9551},{\"adult\":false,\"backdrop_path\":\"/hkBaDkMWbLaf8B1lsWsKX7Ew3Xq.jpg\",\"genre_ids\":[18,28,80,53],\"id\":155,\"original_language\":\"en\",\"original_title\":\"The Dark Knight\",\"overview\":\"Batman raises the stakes in his war on crime. With the help of Lt. Jim Gordon and District Attorney Harvey Dent, Batman sets out to dismantle the remaining criminal organizations that plague the streets. The partnership proves to be effective, but they soon find themselves prey to a reign of chaos unleashed by a rising criminal mastermind known to the terrified citizens of Gotham as the Joker.\",\"popularity\":65.702,\"poster_path\":\"/qJ2tW6WMUDux911r6m7haRef0WH.jpg\",\"release_date\":\"2008-07-16\",\"title\":\"The Dark Knight\",\"video\":false,\"vote_average\":8.5,\"vote_count\":23852},{\"adult\":false,\"backdrop_path\":\"/7c9UVPPiTPltouxRVY6N9uugaVA.jpg\",\"genre_ids\":[35,18,10749],\"id\":13,\"original_language\":\"en\",\"original_title\":\"Forrest Gump\",\"overview\":\"A man with a low IQ has accomplished great things in his life and been present during significant historic events—in each case, far exceeding what anyone imagined he could do. But despite all he has achieved, his one true love eludes him.\",\"popularity\":49.769,\"poster_path\":\"/h5J4W4veyxMXDMjeNxZI46TsHOb.jpg\",\"release_date\":\"1994-07-06\",\"title\":\"Forrest Gump\",\"video\":false,\"vote_average\":8.5,\"vote_count\":19395}],\"total_pages\":405,\"total_results\":8098}"
    </string>
    <string name="movie_poster">movie poster</string>
</resources>